%YAML 1.1
%TAG !u! tag:unity3d.com,2011:
--- !u!114 &11400000
MonoBehaviour:
  m_ObjectHideFlags: 0
  m_CorrespondingSourceObject: {fileID: 0}
  m_PrefabInstance: {fileID: 0}
  m_PrefabAsset: {fileID: 0}
  m_GameObject: {fileID: 0}
  m_Enabled: 1
  m_EditorHideFlags: 0
  m_Script: {fileID: 11500000, guid: 5dc69874c87f7da41a2df752867dc937, type: 3}
  m_Name: DB_Turret
  m_EditorClassIdentifier: 
  _list:
  - {fileID: 11400000, guid: a8fb230b037c6bc478c1cd56c84192b6, type: 2}
  - {fileID: 11400000, guid: 5e3b13ffe5f674f42a413db8fc374117, type: 2}
  - {fileID: 11400000, guid: 25e944d5fcd15354c800c663e2c5dc51, type: 2}
  - {fileID: 11400000, guid: 3a6f755ec27083c49af223eafa64beff, type: 2}
  - {fileID: 11400000, guid: 068c6da4d3f4c814eb84973f3768fbc7, type: 2}
