%YAML 1.1
%TAG !u! tag:unity3d.com,2011:
--- !u!1 &2316645492979920979
GameObject:
  m_ObjectHideFlags: 0
  m_CorrespondingSourceObject: {fileID: 0}
  m_PrefabInstance: {fileID: 0}
  m_PrefabAsset: {fileID: 0}
  serializedVersion: 6
  m_Component:
  - component: {fileID: 2316645492979920976}
  m_Layer: 0
  m_Name: MDL Supernova
  m_TagString: Untagged
  m_Icon: {fileID: 0}
  m_NavMeshLayer: 0
  m_StaticEditorFlags: 0
  m_IsActive: 1
--- !u!4 &2316645492979920976
Transform:
  m_ObjectHideFlags: 0
  m_CorrespondingSourceObject: {fileID: 0}
  m_PrefabInstance: {fileID: 0}
  m_PrefabAsset: {fileID: 0}
  m_GameObject: {fileID: 2316645492979920979}
  m_LocalRotation: {x: 0, y: 0, z: 0, w: 1}
  m_LocalPosition: {x: 0, y: 0, z: 0}
  m_LocalScale: {x: 1, y: 1, z: 1}
  m_Children:
  - {fileID: 2858899214532575456}
  m_Father: {fileID: 0}
  m_RootOrder: 0
  m_LocalEulerAnglesHint: {x: 0, y: 0, z: 0}
--- !u!1001 &2316645492926637835
PrefabInstance:
  m_ObjectHideFlags: 0
  serializedVersion: 2
  m_Modification:
    m_TransformParent: {fileID: 2316645492979920976}
    m_Modifications:
    - target: {fileID: -8679921383154817045, guid: 5e071473c9ef0b7499b86b5bf5b8cd0b, type: 3}
      propertyPath: m_RootOrder
      value: 0
      objectReference: {fileID: 0}
    - target: {fileID: -8679921383154817045, guid: 5e071473c9ef0b7499b86b5bf5b8cd0b, type: 3}
      propertyPath: m_LocalScale.x
      value: 0.5
      objectReference: {fileID: 0}
    - target: {fileID: -8679921383154817045, guid: 5e071473c9ef0b7499b86b5bf5b8cd0b, type: 3}
      propertyPath: m_LocalScale.y
      value: 0.5
      objectReference: {fileID: 0}
    - target: {fileID: -8679921383154817045, guid: 5e071473c9ef0b7499b86b5bf5b8cd0b, type: 3}
      propertyPath: m_LocalScale.z
      value: 0.5
      objectReference: {fileID: 0}
    - target: {fileID: -8679921383154817045, guid: 5e071473c9ef0b7499b86b5bf5b8cd0b, type: 3}
      propertyPath: m_LocalPosition.x
      value: 0
      objectReference: {fileID: 0}
    - target: {fileID: -8679921383154817045, guid: 5e071473c9ef0b7499b86b5bf5b8cd0b, type: 3}
      propertyPath: m_LocalPosition.y
      value: 0
      objectReference: {fileID: 0}
    - target: {fileID: -8679921383154817045, guid: 5e071473c9ef0b7499b86b5bf5b8cd0b, type: 3}
      propertyPath: m_LocalPosition.z
      value: 0
      objectReference: {fileID: 0}
    - target: {fileID: -8679921383154817045, guid: 5e071473c9ef0b7499b86b5bf5b8cd0b, type: 3}
      propertyPath: m_LocalRotation.w
      value: 0.7071068
      objectReference: {fileID: 0}
    - target: {fileID: -8679921383154817045, guid: 5e071473c9ef0b7499b86b5bf5b8cd0b, type: 3}
      propertyPath: m_LocalRotation.x
      value: -0.7071068
      objectReference: {fileID: 0}
    - target: {fileID: -8679921383154817045, guid: 5e071473c9ef0b7499b86b5bf5b8cd0b, type: 3}
      propertyPath: m_LocalRotation.y
      value: 0
      objectReference: {fileID: 0}
    - target: {fileID: -8679921383154817045, guid: 5e071473c9ef0b7499b86b5bf5b8cd0b, type: 3}
      propertyPath: m_LocalRotation.z
      value: 0
      objectReference: {fileID: 0}
    - target: {fileID: -8679921383154817045, guid: 5e071473c9ef0b7499b86b5bf5b8cd0b, type: 3}
      propertyPath: m_LocalEulerAnglesHint.x
      value: -90
      objectReference: {fileID: 0}
    - target: {fileID: -8679921383154817045, guid: 5e071473c9ef0b7499b86b5bf5b8cd0b, type: 3}
      propertyPath: m_LocalEulerAnglesHint.y
      value: 0
      objectReference: {fileID: 0}
    - target: {fileID: -8679921383154817045, guid: 5e071473c9ef0b7499b86b5bf5b8cd0b, type: 3}
      propertyPath: m_LocalEulerAnglesHint.z
      value: 0
      objectReference: {fileID: 0}
    - target: {fileID: -7635826562936255635, guid: 5e071473c9ef0b7499b86b5bf5b8cd0b, type: 3}
      propertyPath: m_Materials.Array.data[0]
      value: 
      objectReference: {fileID: 2100000, guid: 6e0889366074dc04f91a39c0f1671a13, type: 2}
    - target: {fileID: 919132149155446097, guid: 5e071473c9ef0b7499b86b5bf5b8cd0b, type: 3}
      propertyPath: m_Name
      value: CanonXother-12-Warship_Laser_R
      objectReference: {fileID: 0}
    - target: {fileID: 919132149155446097, guid: 5e071473c9ef0b7499b86b5bf5b8cd0b, type: 3}
      propertyPath: m_Layer
      value: 0
      objectReference: {fileID: 0}
    - target: {fileID: 919132149155446097, guid: 5e071473c9ef0b7499b86b5bf5b8cd0b, type: 3}
      propertyPath: m_IsActive
      value: 1
      objectReference: {fileID: 0}
    - target: {fileID: 8164078558771037576, guid: 5e071473c9ef0b7499b86b5bf5b8cd0b, type: 3}
      propertyPath: m_Layer
      value: 0
      objectReference: {fileID: 0}
    m_RemovedComponents: []
  m_SourcePrefab: {fileID: 100100000, guid: 5e071473c9ef0b7499b86b5bf5b8cd0b, type: 3}
--- !u!4 &2858899214532575456 stripped
Transform:
  m_CorrespondingSourceObject: {fileID: -8679921383154817045, guid: 5e071473c9ef0b7499b86b5bf5b8cd0b, type: 3}
  m_PrefabInstance: {fileID: 2316645492926637835}
  m_PrefabAsset: {fileID: 0}
