%YAML 1.1
%TAG !u! tag:unity3d.com,2011:
--- !u!114 &11400000
MonoBehaviour:
  m_ObjectHideFlags: 0
  m_CorrespondingSourceObject: {fileID: 0}
  m_PrefabInstance: {fileID: 0}
  m_PrefabAsset: {fileID: 0}
  m_GameObject: {fileID: 0}
  m_Enabled: 1
  m_EditorHideFlags: 0
  m_Script: {fileID: 11500000, guid: 5d0199c11aa6f514784c5c69cd8378d8, type: 3}
  m_Name: PlayFabEditorPrefsSO
  m_EditorClassIdentifier: 
  DevAccountEmail: josguerra99@outlook.com
  DevAccountToken: 693dym6ddwk5f4rpxhinzygwac7z1eusaxonqhyw741hiwkcgzf1gd6778h7yn8j7aotx83ada3d7crdpy4ugu1jntqnpwag1wqrbxfyfhcdwab5weeumx8urunh3398mn7yk4s4o5g5iqgrxyawoym1zfh4acryam64x3btk6xjb1m9yp9cu1gd5rgcyhmede4zra9h
  SelectedStudio: Game Studio
  SdkPath: Assets/PlayFabSDK
  EdExPath: 
  LocalCloudScriptPath: 
  PanelIsShown: 0
  curMainMenuIdx: 1
  curSubMenuIdx: 0
