<?xml version="1.0" encoding="UTF-8"?>
<COLLADA xmlns="http://www.collada.org/2005/11/COLLADASchema" version="1.4.1">
  <asset>
    <created>2022-01-21T01:26:55Z</created>
    <modified>2022-01-21T01:26:55Z</modified>
    <revision>1.0</revision>
  </asset>
  <library_images>
    <image id="Content-diffuse-tex" name="Content-diffuse-tex">
      <init_from>Content_diffuse.png</init_from>
    </image>
    <image id="Content-emissive-tex" name="Content-emissive-tex">
      <init_from>Content_emissive.png</init_from>
    </image>
  </library_images>
  <library_effects>
    <effect id="Content-Effect">
      <profile_COMMON>
        <newparam sid="Content-diffuse-surface">
          <surface type="2D">
            <init_from>Content-diffuse-tex</init_from>
            <format>A8R8G8B8</format>
          </surface>
        </newparam>
        <newparam sid="Content-emissive-surface">
          <surface type="2D">
            <init_from>Content-emissive-tex</init_from>
            <format>A8R8G8B8</format>
          </surface>
        </newparam>
        <newparam sid="Content-diffuse-sampler">
          <sampler2D>
            <source>Content-diffuse-surface</source>
            <wrap_s>CLAMP</wrap_s>
            <wrap_t>CLAMP</wrap_t>
            <minfilter>NONE</minfilter>
            <magfilter>NONE</magfilter>
            <mipfilter>NONE</mipfilter>
          </sampler2D>
        </newparam>
        <newparam sid="Content-emissive-sampler">
          <sampler2D>
            <source>Content-emissive-surface</source>
            <wrap_s>CLAMP</wrap_s>
            <wrap_t>CLAMP</wrap_t>
            <minfilter>NONE</minfilter>
            <magfilter>NONE</magfilter>
            <mipfilter>NONE</mipfilter>
          </sampler2D>
        </newparam>
        <technique sid="phong1">
          <phong>
            <emission>
              <texture texcoord="Content-tex-bind" texture="Content-emissive-sampler"/>
            </emission>
            <ambient>
              <color>1.0 1.0 1.0 1.0</color>
            </ambient>
            <diffuse>
              <texture texcoord="Content-tex-bind" texture="Content-diffuse-sampler"/>
            </diffuse>
            <specular>
              <color>0.0 0.0 0.0 1.0</color>
            </specular>
            <shininess>
              <float>5.0</float>
            </shininess>
            <reflective>
              <color>1.0 1.0 1.0 1.0</color>
            </reflective>
            <reflectivity>
              <float>0.2</float>
            </reflectivity>
            <transparent>
              <color>1.0 1.0 1.0 1.0</color>
            </transparent>
            <transparency>
              <float>1.0</float>
            </transparency>
          </phong>
        </technique>
      </profile_COMMON>
    </effect>
  </library_effects>
  <library_materials>
    <material id="Content-Material">
      <instance_effect url="#Content-Effect"/>
    </material>
  </library_materials>
  <library_geometries>
    <geometry id="Content-Geom" name="Content-Geom">
      <mesh>
        <source id="Content-Pos">
          <float_array count="888" id="Content-Pos-array">-26.0 3.9999998 14.000001 -26.0 5.0 14.000001 -26.0 5.0 10.0 -26.0 3.9999998 10.0 -26.0 3.9999998 16.999998 -26.0 5.0 16.999998 -26.0 5.0 15.0 -26.0 3.9999998 15.0 -26.0 3.9999998 19.0 -26.0 5.0 19.0 -26.0 5.0 18.000002 -26.0 3.9999998 18.000002 -3.9999986 0.0 29.0 -3.9999986 1.0000002 29.0 -3.9999986 1.0000002 24.0 -3.9999986 0.0 24.0 -3.9999986 0.0 31.999998 -3.9999986 1.0000002 31.999998 -3.9999986 1.0000002 30.0 -3.9999986 0.0 30.0 -3.9999986 0.0 34.0 -3.9999986 1.0000002 34.0 -3.9999986 1.0000002 33.0 -3.9999986 0.0 33.0 2.0000029 0.0 29.0 2.0000029 1.0000002 29.0 2.0000029 1.0000002 25.0 2.0000029 0.0 25.0 2.0000029 0.0 31.999998 2.0000029 1.0000002 31.999998 2.0000029 1.0000002 30.0 2.0000029 0.0 30.0 2.0000029 0.0 34.0 2.0000029 1.0000002 34.0 2.0000029 1.0000002 33.0 2.0000029 0.0 33.0 24.0 3.9999998 14.000001 24.0 5.0 14.000001 24.0 5.0 10.0 24.0 3.9999998 10.0 24.0 3.9999998 16.999998 24.0 5.0 16.999998 24.0 5.0 15.0 24.0 3.9999998 15.0 24.0 3.9999998 19.0 24.0 5.0 19.0 24.0 5.0 18.000002 24.0 3.9999998 18.000002 -24.0 3.9999998 10.0 -24.0 5.0 10.0 -24.0 5.0 14.000001 -24.0 3.9999998 14.000001 -24.0 3.9999998 15.0 -24.0 5.0 15.0 -24.0 5.0 16.999998 -24.0 3.9999998 16.999998 -24.0 3.9999998 18.000002 -24.0 5.0 18.000002 -24.0 5.0 19.0 -24.0 3.9999998 19.0 -2.0000005 0.0 25.0 -2.0000005 1.0000002 25.0 -2.0000005 1.0000002 29.0 -2.0000005 0.0 29.0 -2.0000005 0.0 30.0 -2.0000005 1.0000002 30.0 -2.0000005 1.0000002 31.999998 -2.0000005 0.0 31.999998 -2.0000005 0.0 33.0 -2.0000005 1.0000002 33.0 -2.0000005 1.0000002 34.0 -2.0000005 0.0 34.0 4.000001 0.0 24.0 4.000001 1.0000002 24.0 4.000001 1.0000002 29.0 4.000001 0.0 29.0 4.000001 0.0 30.0 4.000001 1.0000002 30.0 4.000001 1.0000002 31.999998 4.000001 0.0 31.999998 4.000001 0.0 33.0 4.000001 1.0000002 33.0 4.000001 1.0000002 34.0 4.000001 0.0 34.0 26.0 3.9999998 10.0 26.0 5.0 10.0 26.0 5.0 14.000001 26.0 3.9999998 14.000001 26.0 3.9999998 15.0 26.0 5.0 15.0 26.0 5.0 16.999998 26.0 3.9999998 16.999998 26.0 3.9999998 18.000002 26.0 5.0 18.000002 26.0 5.0 19.0 26.0 3.9999998 19.0 2.0000029 0.0 24.0 4.000001 0.0 24.0 4.000001 0.0 29.0 2.0000029 0.0 29.0 -3.9999986 0.0 25.0 -2.0000005 0.0 25.0 -2.0000005 0.0 29.0 -3.9999986 0.0 29.0 -3.9999986 0.0 24.0 2.0000029 0.0 24.0 2.0000029 0.0 25.0 -3.9999986 0.0 25.0 -3.9999986 0.0 30.0 -2.0000005 0.0 30.0 -2.0000005 0.0 31.999998 -3.9999986 0.0 31.999998 2.0000029 0.0 30.0 4.000001 0.0 30.0 4.000001 0.0 31.999998 2.0000029 0.0 31.999998 -3.9999986 0.0 33.0 -2.0000005 0.0 33.0 -2.0000005 0.0 34.0 -3.9999986 0.0 34.0 2.0000029 0.0 33.0 4.000001 0.0 33.0 4.000001 0.0 34.0 2.0000029 0.0 34.0 -26.0 3.9999998 10.0 -24.0 3.9999998 10.0 -24.0 3.9999998 14.000001 -26.0 3.9999998 14.000001 24.0 3.9999998 10.0 26.0 3.9999998 10.0 26.0 3.9999998 14.000001 24.0 3.9999998 14.000001 -26.0 3.9999998 15.0 -24.0 3.9999998 15.0 -24.0 3.9999998 16.999998 -26.0 3.9999998 16.999998 24.0 3.9999998 15.0 26.0 3.9999998 15.0 26.0 3.9999998 16.999998 24.0 3.9999998 16.999998 -26.0 3.9999998 18.000002 -24.0 3.9999998 18.000002 -24.0 3.9999998 19.0 -26.0 3.9999998 19.0 24.0 3.9999998 18.000002 26.0 3.9999998 18.000002 26.0 3.9999998 19.0 24.0 3.9999998 19.0 2.0000029 1.0000002 29.0 4.000001 1.0000002 29.0 4.000001 1.0000002 24.0 2.0000029 1.0000002 24.0 -3.9999986 1.0000002 29.0 -2.0000005 1.0000002 29.0 -2.0000005 1.0000002 25.0 -3.9999986 1.0000002 25.0 -3.9999986 1.0000002 25.0 2.0000029 1.0000002 25.0 2.0000029 1.0000002 24.0 -3.9999986 1.0000002 24.0 -3.9999986 1.0000002 31.999998 -2.0000005 1.0000002 31.999998 -2.0000005 1.0000002 30.0 -3.9999986 1.0000002 30.0 2.0000029 1.0000002 31.999998 4.000001 1.0000002 31.999998 4.000001 1.0000002 30.0 2.0000029 1.0000002 30.0 -3.9999986 1.0000002 34.0 -2.0000005 1.0000002 34.0 -2.0000005 1.0000002 33.0 -3.9999986 1.0000002 33.0 2.0000029 1.0000002 34.0 4.000001 1.0000002 34.0 4.000001 1.0000002 33.0 2.0000029 1.0000002 33.0 -26.0 5.0 14.000001 -24.0 5.0 14.000001 -24.0 5.0 10.0 -26.0 5.0 10.0 24.0 5.0 14.000001 26.0 5.0 14.000001 26.0 5.0 10.0 24.0 5.0 10.0 -26.0 5.0 16.999998 -24.0 5.0 16.999998 -24.0 5.0 15.0 -26.0 5.0 15.0 24.0 5.0 16.999998 26.0 5.0 16.999998 26.0 5.0 15.0 24.0 5.0 15.0 -26.0 5.0 19.0 -24.0 5.0 19.0 -24.0 5.0 18.000002 -26.0 5.0 18.000002 24.0 5.0 19.0 26.0 5.0 19.0 26.0 5.0 18.000002 24.0 5.0 18.000002 -26.0 5.0 10.0 -24.0 5.0 10.0 -24.0 3.9999998 10.0 -26.0 3.9999998 10.0 24.0 5.0 10.0 26.0 5.0 10.0 26.0 3.9999998 10.0 24.0 3.9999998 10.0 -26.0 5.0 15.0 -24.0 5.0 15.0 -24.0 3.9999998 15.0 -26.0 3.9999998 15.0 24.0 5.0 15.0 26.0 5.0 15.0 26.0 3.9999998 15.0 24.0 3.9999998 15.0 -26.0 5.0 18.000002 -24.0 5.0 18.000002 -24.0 3.9999998 18.000002 -26.0 3.9999998 18.000002 24.0 5.0 18.000002 26.0 5.0 18.000002 26.0 3.9999998 18.000002 24.0 3.9999998 18.000002 -3.9999986 1.0000002 24.0 4.000001 1.0000002 24.0 4.000001 0.0 24.0 -3.9999986 0.0 24.0 -3.9999986 1.0000002 30.0 -2.0000005 1.0000002 30.0 -2.0000005 0.0 30.0 -3.9999986 0.0 30.0 2.0000029 1.0000002 30.0 4.000001 1.0000002 30.0 4.000001 0.0 30.0 2.0000029 0.0 30.0 -3.9999986 1.0000002 33.0 -2.0000005 1.0000002 33.0 -2.0000005 0.0 33.0 -3.9999986 0.0 33.0 2.0000029 1.0000002 33.0 4.000001 1.0000002 33.0 4.000001 0.0 33.0 2.0000029 0.0 33.0 -26.0 3.9999998 14.000001 -24.0 3.9999998 14.000001 -24.0 5.0 14.000001 -26.0 5.0 14.000001 24.0 3.9999998 14.000001 26.0 3.9999998 14.000001 26.0 5.0 14.000001 24.0 5.0 14.000001 -26.0 3.9999998 16.999998 -24.0 3.9999998 16.999998 -24.0 5.0 16.999998 -26.0 5.0 16.999998 24.0 3.9999998 16.999998 26.0 3.9999998 16.999998 26.0 5.0 16.999998 24.0 5.0 16.999998 -26.0 3.9999998 19.0 -24.0 3.9999998 19.0 -24.0 5.0 19.0 -26.0 5.0 19.0 24.0 3.9999998 19.0 26.0 3.9999998 19.0 26.0 5.0 19.0 24.0 5.0 19.0 -2.0000005 0.0 25.0 2.0000029 0.0 25.0 2.0000029 1.0000002 25.0 -2.0000005 1.0000002 25.0 -3.9999986 0.0 29.0 -2.0000005 0.0 29.0 -2.0000005 1.0000002 29.0 -3.9999986 1.0000002 29.0 2.0000029 0.0 29.0 4.000001 0.0 29.0 4.000001 1.0000002 29.0 2.0000029 1.0000002 29.0 -3.9999986 0.0 31.999998 -2.0000005 0.0 31.999998 -2.0000005 1.0000002 31.999998 -3.9999986 1.0000002 31.999998 2.0000029 0.0 31.999998 4.000001 0.0 31.999998 4.000001 1.0000002 31.999998 2.0000029 1.0000002 31.999998 -3.9999986 0.0 34.0 -2.0000005 0.0 34.0 -2.0000005 1.0000002 34.0 -3.9999986 1.0000002 34.0 2.0000029 0.0 34.0 4.000001 0.0 34.0 4.000001 1.0000002 34.0 2.0000029 1.0000002 34.0 </float_array>
          <technique_common>
            <accessor count="296" source="#Content-Pos-array" stride="3">
              <param name="X" type="float"/>
              <param name="Y" type="float"/>
              <param name="Z" type="float"/>
            </accessor>
          </technique_common>
        </source>
        <source id="Content-UV">
          <float_array count="592" id="Content-UV-array">0.0 0.96875 0.0078125 0.96875 0.0078125 1.0 0.0 1.0 0.0 0.984375 0.0078125 0.984375 0.0078125 1.0 0.0 1.0 0.0 0.9921875 0.0078125 0.9921875 0.0078125 1.0 0.0 1.0 0.0234375 0.9609375 0.03125 0.9609375 0.03125 1.0 0.0234375 1.0 0.0 0.984375 0.0078125 0.984375 0.0078125 1.0 0.0 1.0 0.0 0.9921875 0.0078125 0.9921875 0.0078125 1.0 0.0 1.0 0.0 0.96875 0.0078125 0.96875 0.0078125 1.0 0.0 1.0 0.0 0.984375 0.0078125 0.984375 0.0078125 1.0 0.0 1.0 0.0 0.9921875 0.0078125 0.9921875 0.0078125 1.0 0.0 1.0 0.0 0.96875 0.0078125 0.96875 0.0078125 1.0 0.0 1.0 0.0 0.984375 0.0078125 0.984375 0.0078125 1.0 0.0 1.0 0.0 0.9921875 0.0078125 0.9921875 0.0078125 1.0 0.0 1.0 0.0 1.0 0.0078125 1.0 0.0078125 0.96875 0.0 0.96875 0.0 1.0 0.0078125 1.0 0.0078125 0.984375 0.0 0.984375 0.0 1.0 0.0078125 1.0 0.0078125 0.9921875 0.0 0.9921875 0.0 1.0 0.0078125 1.0 0.0078125 0.96875 0.0 0.96875 0.0 1.0 0.0078125 1.0 0.0078125 0.984375 0.0 0.984375 0.0 1.0 0.0078125 1.0 0.0078125 0.9921875 0.0 0.9921875 0.0234375 1.0 0.03125 1.0 0.03125 0.9609375 0.0234375 0.9609375 0.0 1.0 0.0078125 1.0 0.0078125 0.984375 0.0 0.984375 0.0 1.0 0.0078125 1.0 0.0078125 0.9921875 0.0 0.9921875 0.0 1.0 0.0078125 1.0 0.0078125 0.96875 0.0 0.96875 0.0 1.0 0.0078125 1.0 0.0078125 0.984375 0.0 0.984375 0.0 1.0 0.0078125 1.0 0.0078125 0.9921875 0.0 0.9921875 0.1796875 1.0 0.1953125 1.0 0.1953125 0.9609375 0.1796875 0.9609375 0.2421875 1.0 0.2578125 1.0 0.2578125 0.96875 0.2421875 0.96875 0.0 0.84375 0.0 0.890625 0.0078125 0.890625 0.0078125 0.84375 0.3359375 1.0 0.3515625 1.0 0.3515625 0.984375 0.3359375 0.984375 0.3671875 1.0 0.3828125 1.0 0.3828125 0.984375 0.3671875 0.984375 0.0 0.984375 0.0 1.0 0.0078125 1.0 0.0078125 0.984375 0.0 0.984375 0.0 1.0 0.0078125 1.0 0.0078125 0.984375 0.3984375 1.0 0.4140625 1.0 0.4140625 0.96875 0.3984375 0.96875 0.4296875 1.0 0.4453125 1.0 0.4453125 0.96875 0.4296875 0.96875 0.4609375 1.0 0.4765625 1.0 0.4765625 0.984375 0.4609375 0.984375 0.4921875 1.0 0.5078125 1.0 0.5078125 0.984375 0.4921875 0.984375 0.0 0.984375 0.0 1.0 0.0078125 1.0 0.0078125 0.984375 0.0 0.984375 0.0 1.0 0.0078125 1.0 0.0078125 0.984375 0.0234375 0.9609375 0.0390625 0.9609375 0.0390625 1.0 0.0234375 1.0 0.0546875 0.96875 0.0703125 0.96875 0.0703125 1.0 0.0546875 1.0 0.0078125 0.90625 0.0078125 0.953125 0.0 0.953125 0.0 0.90625 0.0859375 0.984375 0.1015625 0.984375 0.1015625 1.0 0.0859375 1.0 0.1171875 0.984375 0.1328125 0.984375 0.1328125 1.0 0.1171875 1.0 0.0078125 0.984375 0.0078125 1.0 0.0 1.0 0.0 0.984375 0.0078125 0.984375 0.0078125 1.0 0.0 1.0 0.0 0.984375 0.1484375 0.96875 0.1640625 0.96875 0.1640625 1.0 0.1484375 1.0 0.2109375 0.96875 0.2265625 0.96875 0.2265625 1.0 0.2109375 1.0 0.2734375 0.984375 0.2890625 0.984375 0.2890625 1.0 0.2734375 1.0 0.3046875 0.984375 0.3203125 0.984375 0.3203125 1.0 0.3046875 1.0 0.0078125 0.984375 0.0078125 1.0 0.0 1.0 0.0 0.984375 0.0078125 0.984375 0.0078125 1.0 0.0 1.0 0.0 0.984375 0.0078125 0.984375 0.0078125 1.0 0.0 1.0 0.0 0.984375 0.0078125 0.984375 0.0078125 1.0 0.0 1.0 0.0 0.984375 0.0078125 0.984375 0.0078125 1.0 0.0 1.0 0.0 0.984375 0.0078125 0.984375 0.0078125 1.0 0.0 1.0 0.0 0.984375 0.0078125 0.984375 0.0078125 1.0 0.0 1.0 0.0 0.984375 0.0078125 0.984375 0.0078125 1.0 0.0 1.0 0.0 0.984375 0.0078125 0.765625 0.0078125 0.828125 0.0 0.828125 0.0 0.765625 0.0078125 0.984375 0.0078125 1.0 0.0 1.0 0.0 0.984375 0.0078125 0.984375 0.0078125 1.0 0.0 1.0 0.0 0.984375 0.0078125 0.984375 0.0078125 1.0 0.0 1.0 0.0 0.984375 0.0078125 0.984375 0.0078125 1.0 0.0 1.0 0.0 0.984375 0.0 0.984375 0.0 1.0 0.0078125 1.0 0.0078125 0.984375 0.0 0.984375 0.0 1.0 0.0078125 1.0 0.0078125 0.984375 0.0 0.984375 0.0 1.0 0.0078125 1.0 0.0078125 0.984375 0.0 0.984375 0.0 1.0 0.0078125 1.0 0.0078125 0.984375 0.0 0.984375 0.0 1.0 0.0078125 1.0 0.0078125 0.984375 0.0 0.984375 0.0 1.0 0.0078125 1.0 0.0078125 0.984375 0.0 0.96875 0.0 1.0 0.0078125 1.0 0.0078125 0.96875 0.0 0.984375 0.0 1.0 0.0078125 1.0 0.0078125 0.984375 0.0 0.984375 0.0 1.0 0.0078125 1.0 0.0078125 0.984375 0.0 0.984375 0.0 1.0 0.0078125 1.0 0.0078125 0.984375 0.0 0.984375 0.0 1.0 0.0078125 1.0 0.0078125 0.984375 0.0 0.984375 0.0 1.0 0.0078125 1.0 0.0078125 0.984375 0.0 0.984375 0.0 1.0 0.0078125 1.0 0.0078125 0.984375 </float_array>
          <technique_common>
            <accessor count="296" source="#Content-UV-array" stride="2">
              <param name="S" type="float"/>
              <param name="T" type="float"/>
            </accessor>
          </technique_common>
        </source>
        <source id="Content-Normal">
          <float_array count="18" id="Content-Normal-array">-1.0 0.0 0.0 1.0 0.0 0.0 0.0 -1.0 0.0 0.0 1.0 0.0 0.0 0.0 -1.0 0.0 0.0 1.0</float_array>
          <technique_common>
            <accessor count="6" source="#Content-Normal-array" stride="3">
              <param name="X" type="float"/>
              <param name="Y" type="float"/>
              <param name="Z" type="float"/>
            </accessor>
          </technique_common>
        </source>
        <vertices id="Content-Vertices">
          <input semantic="POSITION" source="#Content-Pos"/>
        </vertices>
        <polylist count="74" material="Content-Material">
          <input offset="0" semantic="VERTEX" source="#Content-Vertices"/>
          <input offset="1" semantic="TEXCOORD" set="0" source="#Content-UV"/>
          <input offset="2" semantic="NORMAL" source="#Content-Normal"/>
          <vcount>4 4 4 4 4 4 4 4 4 4 4 4 4 4 4 4 4 4 4 4 4 4 4 4 4 4 4 4 4 4 4 4 4 4 4 4 4 4 4 4 4 4 4 4 4 4 4 4 4 4 4 4 4 4 4 4 4 4 4 4 4 4 4 4 4 4 4 4 4 4 4 4 4 4 </vcount>
          <p>0 0 0 1 1 0 2 2 0 3 3 0 4 4 0 5 5 0 6 6 0 7 7 0 8 8 0 9 9 0 10 10 0 11 11 0 12 12 0 13 13 0 14 14 0 15 15 0 16 16 0 17 17 0 18 18 0 19 19 0 20 20 0 21 21 0 22 22 0 23 23 0 24 24 0 25 25 0 26 26 0 27 27 0 28 28 0 29 29 0 30 30 0 31 31 0 32 32 0 33 33 0 34 34 0 35 35 0 36 36 0 37 37 0 38 38 0 39 39 0 40 40 0 41 41 0 42 42 0 43 43 0 44 44 0 45 45 0 46 46 0 47 47 0 48 48 1 49 49 1 50 50 1 51 51 1 52 52 1 53 53 1 54 54 1 55 55 1 56 56 1 57 57 1 58 58 1 59 59 1 60 60 1 61 61 1 62 62 1 63 63 1 64 64 1 65 65 1 66 66 1 67 67 1 68 68 1 69 69 1 70 70 1 71 71 1 72 72 1 73 73 1 74 74 1 75 75 1 76 76 1 77 77 1 78 78 1 79 79 1 80 80 1 81 81 1 82 82 1 83 83 1 84 84 1 85 85 1 86 86 1 87 87 1 88 88 1 89 89 1 90 90 1 91 91 1 92 92 1 93 93 1 94 94 1 95 95 1 96 96 2 97 97 2 98 98 2 99 99 2 100 100 2 101 101 2 102 102 2 103 103 2 104 104 2 105 105 2 106 106 2 107 107 2 108 108 2 109 109 2 110 110 2 111 111 2 112 112 2 113 113 2 114 114 2 115 115 2 116 116 2 117 117 2 118 118 2 119 119 2 120 120 2 121 121 2 122 122 2 123 123 2 124 124 2 125 125 2 126 126 2 127 127 2 128 128 2 129 129 2 130 130 2 131 131 2 132 132 2 133 133 2 134 134 2 135 135 2 136 136 2 137 137 2 138 138 2 139 139 2 140 140 2 141 141 2 142 142 2 143 143 2 144 144 2 145 145 2 146 146 2 147 147 2 148 148 3 149 149 3 150 150 3 151 151 3 152 152 3 153 153 3 154 154 3 155 155 3 156 156 3 157 157 3 158 158 3 159 159 3 160 160 3 161 161 3 162 162 3 163 163 3 164 164 3 165 165 3 166 166 3 167 167 3 168 168 3 169 169 3 170 170 3 171 171 3 172 172 3 173 173 3 174 174 3 175 175 3 176 176 3 177 177 3 178 178 3 179 179 3 180 180 3 181 181 3 182 182 3 183 183 3 184 184 3 185 185 3 186 186 3 187 187 3 188 188 3 189 189 3 190 190 3 191 191 3 192 192 3 193 193 3 194 194 3 195 195 3 196 196 3 197 197 3 198 198 3 199 199 3 200 200 4 201 201 4 202 202 4 203 203 4 204 204 4 205 205 4 206 206 4 207 207 4 208 208 4 209 209 4 210 210 4 211 211 4 212 212 4 213 213 4 214 214 4 215 215 4 216 216 4 217 217 4 218 218 4 219 219 4 220 220 4 221 221 4 222 222 4 223 223 4 224 224 4 225 225 4 226 226 4 227 227 4 228 228 4 229 229 4 230 230 4 231 231 4 232 232 4 233 233 4 234 234 4 235 235 4 236 236 4 237 237 4 238 238 4 239 239 4 240 240 4 241 241 4 242 242 4 243 243 4 244 244 5 245 245 5 246 246 5 247 247 5 248 248 5 249 249 5 250 250 5 251 251 5 252 252 5 253 253 5 254 254 5 255 255 5 256 256 5 257 257 5 258 258 5 259 259 5 260 260 5 261 261 5 262 262 5 263 263 5 264 264 5 265 265 5 266 266 5 267 267 5 268 268 5 269 269 5 270 270 5 271 271 5 272 272 5 273 273 5 274 274 5 275 275 5 276 276 5 277 277 5 278 278 5 279 279 5 280 280 5 281 281 5 282 282 5 283 283 5 284 284 5 285 285 5 286 286 5 287 287 5 288 288 5 289 289 5 290 290 5 291 291 5 292 292 5 293 293 5 294 294 5 295 295 5 </p>
        </polylist>
      </mesh>
    </geometry>
  </library_geometries>
  <library_animations/>
  <library_visual_scenes>
    <visual_scene id="DefaultScene">
      <node id="Content" name="Content">
        <translate>0 0 0</translate>
        <rotate>0 0 1 0</rotate>
        <rotate>0 1 0 0</rotate>
        <rotate>1 0 0 0</rotate>
        <scale>1 1 1</scale>
        <instance_geometry url="#Content-Geom">
          <bind_material>
            <technique_common>
              <instance_material symbol="Content-Material" target="#Content-Material">
                <bind_vertex_input input_semantic="TEXCOORD" input_set="0" semantic="Content-tex-bind"/>
              </instance_material>
            </technique_common>
          </bind_material>
        </instance_geometry>
      </node>
    </visual_scene>
  </library_visual_scenes>
  <scene>
    <instance_visual_scene url="#DefaultScene"/>
  </scene>
</COLLADA>
