<?xml version="1.0" encoding="UTF-8"?>
<COLLADA xmlns="http://www.collada.org/2005/11/COLLADASchema" version="1.4.1">
  <asset>
    <created>2022-01-21T02:05:48Z</created>
    <modified>2022-01-21T02:05:48Z</modified>
    <revision>1.0</revision>
  </asset>
  <library_images>
    <image id="Content-diffuse-tex" name="Content-diffuse-tex">
      <init_from>Content_diffuse.png</init_from>
    </image>
    <image id="Content-emissive-tex" name="Content-emissive-tex">
      <init_from>Content_emissive.png</init_from>
    </image>
  </library_images>
  <library_effects>
    <effect id="Content-Effect">
      <profile_COMMON>
        <newparam sid="Content-diffuse-surface">
          <surface type="2D">
            <init_from>Content-diffuse-tex</init_from>
            <format>A8R8G8B8</format>
          </surface>
        </newparam>
        <newparam sid="Content-emissive-surface">
          <surface type="2D">
            <init_from>Content-emissive-tex</init_from>
            <format>A8R8G8B8</format>
          </surface>
        </newparam>
        <newparam sid="Content-diffuse-sampler">
          <sampler2D>
            <source>Content-diffuse-surface</source>
            <wrap_s>CLAMP</wrap_s>
            <wrap_t>CLAMP</wrap_t>
            <minfilter>NONE</minfilter>
            <magfilter>NONE</magfilter>
            <mipfilter>NONE</mipfilter>
          </sampler2D>
        </newparam>
        <newparam sid="Content-emissive-sampler">
          <sampler2D>
            <source>Content-emissive-surface</source>
            <wrap_s>CLAMP</wrap_s>
            <wrap_t>CLAMP</wrap_t>
            <minfilter>NONE</minfilter>
            <magfilter>NONE</magfilter>
            <mipfilter>NONE</mipfilter>
          </sampler2D>
        </newparam>
        <technique sid="phong1">
          <phong>
            <emission>
              <texture texcoord="Content-tex-bind" texture="Content-emissive-sampler"/>
            </emission>
            <ambient>
              <color>1.0 1.0 1.0 1.0</color>
            </ambient>
            <diffuse>
              <texture texcoord="Content-tex-bind" texture="Content-diffuse-sampler"/>
            </diffuse>
            <specular>
              <color>0.0 0.0 0.0 1.0</color>
            </specular>
            <shininess>
              <float>5.0</float>
            </shininess>
            <reflective>
              <color>1.0 1.0 1.0 1.0</color>
            </reflective>
            <reflectivity>
              <float>0.2</float>
            </reflectivity>
            <transparent>
              <color>1.0 1.0 1.0 1.0</color>
            </transparent>
            <transparency>
              <float>1.0</float>
            </transparency>
          </phong>
        </technique>
      </profile_COMMON>
    </effect>
  </library_effects>
  <library_materials>
    <material id="Content-Material">
      <instance_effect url="#Content-Effect"/>
    </material>
  </library_materials>
  <library_geometries>
    <geometry id="Content-Geom" name="Content-Geom">
      <mesh>
        <source id="Content-Pos">
          <float_array count="1008" id="Content-Pos-array">-19.5 -7.0 15.500001 -19.5 -6.0 15.500001 -19.5 -6.0 13.500001 -19.5 -7.0 13.500001 -19.5 -7.0 17.5 -19.5 -6.0 17.5 -19.5 -6.0 16.5 -19.5 -7.0 16.5 -14.5 -6.0 13.500001 -14.5 -4.9999995 13.500001 -14.5 -4.9999995 11.500001 -14.5 -6.0 11.500001 -14.5 -6.0 15.500001 -14.5 -4.9999995 15.500001 -14.5 -4.9999995 14.500001 -14.5 -6.0 14.500001 -4.4999995 -2.9999998 28.5 -4.4999995 -1.9999999 28.5 -4.4999995 -1.9999999 26.5 -4.4999995 -2.9999998 26.5 -4.4999995 -2.9999998 30.5 -4.4999995 -1.9999999 30.5 -4.4999995 -1.9999999 29.5 -4.4999995 -2.9999998 29.5 -4.4999995 -2.9999998 32.5 -4.4999995 -1.9999999 32.5 -4.4999995 -1.9999999 31.5 -4.4999995 -2.9999998 31.5 3.4999998 -2.9999998 28.5 3.4999998 -1.9999999 28.5 3.4999998 -1.9999999 26.5 3.4999998 -2.9999998 26.5 3.4999998 -2.9999998 30.5 3.4999998 -1.9999999 30.5 3.4999998 -1.9999999 29.5 3.4999998 -2.9999998 29.5 3.4999998 -2.9999998 32.5 3.4999998 -1.9999999 32.5 3.4999998 -1.9999999 31.5 3.4999998 -2.9999998 31.5 13.500001 -6.0 13.500001 13.500001 -4.9999995 13.500001 13.500001 -4.9999995 11.500001 13.500001 -6.0 11.500001 13.500001 -6.0 15.500001 13.500001 -4.9999995 15.500001 13.500001 -4.9999995 14.500001 13.500001 -6.0 14.500001 18.5 -7.0 15.500001 18.5 -6.0 15.500001 18.5 -6.0 13.500001 18.5 -7.0 13.500001 18.5 -7.0 17.5 18.5 -6.0 17.5 18.5 -6.0 16.5 18.5 -7.0 16.5 -18.5 -7.0 13.500001 -18.5 -6.0 13.500001 -18.5 -6.0 15.500001 -18.5 -7.0 15.500001 -18.5 -7.0 16.5 -18.5 -6.0 16.5 -18.5 -6.0 17.5 -18.5 -7.0 17.5 -13.5 -6.0 11.500001 -13.5 -4.9999995 11.500001 -13.5 -4.9999995 13.500001 -13.5 -6.0 13.500001 -13.5 -6.0 14.500001 -13.5 -4.9999995 14.500001 -13.5 -4.9999995 15.500001 -13.5 -6.0 15.500001 -3.4999998 -2.9999998 26.5 -3.4999998 -1.9999999 26.5 -3.4999998 -1.9999999 28.5 -3.4999998 -2.9999998 28.5 -3.4999998 -2.9999998 29.5 -3.4999998 -1.9999999 29.5 -3.4999998 -1.9999999 30.5 -3.4999998 -2.9999998 30.5 -3.4999998 -2.9999998 31.5 -3.4999998 -1.9999999 31.5 -3.4999998 -1.9999999 32.5 -3.4999998 -2.9999998 32.5 4.4999995 -2.9999998 26.5 4.4999995 -1.9999999 26.5 4.4999995 -1.9999999 28.5 4.4999995 -2.9999998 28.5 4.4999995 -2.9999998 29.5 4.4999995 -1.9999999 29.5 4.4999995 -1.9999999 30.5 4.4999995 -2.9999998 30.5 4.4999995 -2.9999998 31.5 4.4999995 -1.9999999 31.5 4.4999995 -1.9999999 32.5 4.4999995 -2.9999998 32.5 14.500001 -6.0 11.500001 14.500001 -4.9999995 11.500001 14.500001 -4.9999995 13.500001 14.500001 -6.0 13.500001 14.500001 -6.0 14.500001 14.500001 -4.9999995 14.500001 14.500001 -4.9999995 15.500001 14.500001 -6.0 15.500001 19.5 -7.0 13.500001 19.5 -6.0 13.500001 19.5 -6.0 15.500001 19.5 -7.0 15.500001 19.5 -7.0 16.5 19.5 -6.0 16.5 19.5 -6.0 17.5 19.5 -7.0 17.5 -19.5 -7.0 13.500001 -18.5 -7.0 13.500001 -18.5 -7.0 15.500001 -19.5 -7.0 15.500001 18.5 -7.0 13.500001 19.5 -7.0 13.500001 19.5 -7.0 15.500001 18.5 -7.0 15.500001 -19.5 -7.0 16.5 -18.5 -7.0 16.5 -18.5 -7.0 17.5 -19.5 -7.0 17.5 18.5 -7.0 16.5 19.5 -7.0 16.5 19.5 -7.0 17.5 18.5 -7.0 17.5 -14.5 -6.0 11.500001 -13.5 -6.0 11.500001 -13.5 -6.0 13.500001 -14.5 -6.0 13.500001 13.500001 -6.0 11.500001 14.500001 -6.0 11.500001 14.500001 -6.0 13.500001 13.500001 -6.0 13.500001 -14.5 -6.0 14.500001 -13.5 -6.0 14.500001 -13.5 -6.0 15.500001 -14.5 -6.0 15.500001 13.500001 -6.0 14.500001 14.500001 -6.0 14.500001 14.500001 -6.0 15.500001 13.500001 -6.0 15.500001 -4.4999995 -2.9999998 26.5 -3.4999998 -2.9999998 26.5 -3.4999998 -2.9999998 28.5 -4.4999995 -2.9999998 28.5 3.4999998 -2.9999998 26.5 4.4999995 -2.9999998 26.5 4.4999995 -2.9999998 28.5 3.4999998 -2.9999998 28.5 -4.4999995 -2.9999998 29.5 -3.4999998 -2.9999998 29.5 -3.4999998 -2.9999998 30.5 -4.4999995 -2.9999998 30.5 3.4999998 -2.9999998 29.5 4.4999995 -2.9999998 29.5 4.4999995 -2.9999998 30.5 3.4999998 -2.9999998 30.5 -4.4999995 -2.9999998 31.5 -3.4999998 -2.9999998 31.5 -3.4999998 -2.9999998 32.5 -4.4999995 -2.9999998 32.5 3.4999998 -2.9999998 31.5 4.4999995 -2.9999998 31.5 4.4999995 -2.9999998 32.5 3.4999998 -2.9999998 32.5 -19.5 -6.0 15.500001 -18.5 -6.0 15.500001 -18.5 -6.0 13.500001 -19.5 -6.0 13.500001 18.5 -6.0 15.500001 19.5 -6.0 15.500001 19.5 -6.0 13.500001 18.5 -6.0 13.500001 -19.5 -6.0 17.5 -18.5 -6.0 17.5 -18.5 -6.0 16.5 -19.5 -6.0 16.5 18.5 -6.0 17.5 19.5 -6.0 17.5 19.5 -6.0 16.5 18.5 -6.0 16.5 -14.5 -4.9999995 13.500001 -13.5 -4.9999995 13.500001 -13.5 -4.9999995 11.500001 -14.5 -4.9999995 11.500001 13.500001 -4.9999995 13.500001 14.500001 -4.9999995 13.500001 14.500001 -4.9999995 11.500001 13.500001 -4.9999995 11.500001 -14.5 -4.9999995 15.500001 -13.5 -4.9999995 15.500001 -13.5 -4.9999995 14.500001 -14.5 -4.9999995 14.500001 13.500001 -4.9999995 15.500001 14.500001 -4.9999995 15.500001 14.500001 -4.9999995 14.500001 13.500001 -4.9999995 14.500001 -4.4999995 -1.9999999 28.5 -3.4999998 -1.9999999 28.5 -3.4999998 -1.9999999 26.5 -4.4999995 -1.9999999 26.5 3.4999998 -1.9999999 28.5 4.4999995 -1.9999999 28.5 4.4999995 -1.9999999 26.5 3.4999998 -1.9999999 26.5 -4.4999995 -1.9999999 30.5 -3.4999998 -1.9999999 30.5 -3.4999998 -1.9999999 29.5 -4.4999995 -1.9999999 29.5 3.4999998 -1.9999999 30.5 4.4999995 -1.9999999 30.5 4.4999995 -1.9999999 29.5 3.4999998 -1.9999999 29.5 -4.4999995 -1.9999999 32.5 -3.4999998 -1.9999999 32.5 -3.4999998 -1.9999999 31.5 -4.4999995 -1.9999999 31.5 3.4999998 -1.9999999 32.5 4.4999995 -1.9999999 32.5 4.4999995 -1.9999999 31.5 3.4999998 -1.9999999 31.5 -14.5 -4.9999995 11.500001 -13.5 -4.9999995 11.500001 -13.5 -6.0 11.500001 -14.5 -6.0 11.500001 13.500001 -4.9999995 11.500001 14.500001 -4.9999995 11.500001 14.500001 -6.0 11.500001 13.500001 -6.0 11.500001 -19.5 -6.0 13.500001 -18.5 -6.0 13.500001 -18.5 -7.0 13.500001 -19.5 -7.0 13.500001 18.5 -6.0 13.500001 19.5 -6.0 13.500001 19.5 -7.0 13.500001 18.5 -7.0 13.500001 -14.5 -4.9999995 14.500001 -13.5 -4.9999995 14.500001 -13.5 -6.0 14.500001 -14.5 -6.0 14.500001 13.500001 -4.9999995 14.500001 14.500001 -4.9999995 14.500001 14.500001 -6.0 14.500001 13.500001 -6.0 14.500001 -19.5 -6.0 16.5 -18.5 -6.0 16.5 -18.5 -7.0 16.5 -19.5 -7.0 16.5 18.5 -6.0 16.5 19.5 -6.0 16.5 19.5 -7.0 16.5 18.5 -7.0 16.5 -4.4999995 -1.9999999 26.5 -3.4999998 -1.9999999 26.5 -3.4999998 -2.9999998 26.5 -4.4999995 -2.9999998 26.5 3.4999998 -1.9999999 26.5 4.4999995 -1.9999999 26.5 4.4999995 -2.9999998 26.5 3.4999998 -2.9999998 26.5 -4.4999995 -1.9999999 29.5 -3.4999998 -1.9999999 29.5 -3.4999998 -2.9999998 29.5 -4.4999995 -2.9999998 29.5 3.4999998 -1.9999999 29.5 4.4999995 -1.9999999 29.5 4.4999995 -2.9999998 29.5 3.4999998 -2.9999998 29.5 -4.4999995 -1.9999999 31.5 -3.4999998 -1.9999999 31.5 -3.4999998 -2.9999998 31.5 -4.4999995 -2.9999998 31.5 3.4999998 -1.9999999 31.5 4.4999995 -1.9999999 31.5 4.4999995 -2.9999998 31.5 3.4999998 -2.9999998 31.5 -14.5 -6.0 13.500001 -13.5 -6.0 13.500001 -13.5 -4.9999995 13.500001 -14.5 -4.9999995 13.500001 13.500001 -6.0 13.500001 14.500001 -6.0 13.500001 14.500001 -4.9999995 13.500001 13.500001 -4.9999995 13.500001 -19.5 -7.0 15.500001 -18.5 -7.0 15.500001 -18.5 -6.0 15.500001 -19.5 -6.0 15.500001 18.5 -7.0 15.500001 19.5 -7.0 15.500001 19.5 -6.0 15.500001 18.5 -6.0 15.500001 -14.5 -6.0 15.500001 -13.5 -6.0 15.500001 -13.5 -4.9999995 15.500001 -14.5 -4.9999995 15.500001 13.500001 -6.0 15.500001 14.500001 -6.0 15.500001 14.500001 -4.9999995 15.500001 13.500001 -4.9999995 15.500001 -19.5 -7.0 17.5 -18.5 -7.0 17.5 -18.5 -6.0 17.5 -19.5 -6.0 17.5 18.5 -7.0 17.5 19.5 -7.0 17.5 19.5 -6.0 17.5 18.5 -6.0 17.5 -4.4999995 -2.9999998 28.5 -3.4999998 -2.9999998 28.5 -3.4999998 -1.9999999 28.5 -4.4999995 -1.9999999 28.5 3.4999998 -2.9999998 28.5 4.4999995 -2.9999998 28.5 4.4999995 -1.9999999 28.5 3.4999998 -1.9999999 28.5 -4.4999995 -2.9999998 30.5 -3.4999998 -2.9999998 30.5 -3.4999998 -1.9999999 30.5 -4.4999995 -1.9999999 30.5 3.4999998 -2.9999998 30.5 4.4999995 -2.9999998 30.5 4.4999995 -1.9999999 30.5 3.4999998 -1.9999999 30.5 -4.4999995 -2.9999998 32.5 -3.4999998 -2.9999998 32.5 -3.4999998 -1.9999999 32.5 -4.4999995 -1.9999999 32.5 3.4999998 -2.9999998 32.5 4.4999995 -2.9999998 32.5 4.4999995 -1.9999999 32.5 3.4999998 -1.9999999 32.5 </float_array>
          <technique_common>
            <accessor count="336" source="#Content-Pos-array" stride="3">
              <param name="X" type="float"/>
              <param name="Y" type="float"/>
              <param name="Z" type="float"/>
            </accessor>
          </technique_common>
        </source>
        <source id="Content-UV">
          <float_array count="672" id="Content-UV-array">0.0 0.984375 0.0078125 0.984375 0.0078125 1.0 0.0 1.0 0.0 0.9921875 0.0078125 0.9921875 0.0078125 1.0 0.0 1.0 0.0 0.984375 0.0078125 0.984375 0.0078125 1.0 0.0 1.0 0.0 0.9921875 0.0078125 0.9921875 0.0078125 1.0 0.0 1.0 0.0 0.984375 0.0078125 0.984375 0.0078125 1.0 0.0 1.0 0.0 0.9921875 0.0078125 0.9921875 0.0078125 1.0 0.0 1.0 0.0 0.9921875 0.0078125 0.9921875 0.0078125 1.0 0.0 1.0 0.0 0.984375 0.0078125 0.984375 0.0078125 1.0 0.0 1.0 0.0 0.9921875 0.0078125 0.9921875 0.0078125 1.0 0.0 1.0 0.0 0.9921875 0.0078125 0.9921875 0.0078125 1.0 0.0 1.0 0.0 0.984375 0.0078125 0.984375 0.0078125 1.0 0.0 1.0 0.0 0.9921875 0.0078125 0.9921875 0.0078125 1.0 0.0 1.0 0.0 0.984375 0.0078125 0.984375 0.0078125 1.0 0.0 1.0 0.0 0.9921875 0.0078125 0.9921875 0.0078125 1.0 0.0 1.0 0.0 1.0 0.0078125 1.0 0.0078125 0.984375 0.0 0.984375 0.0 1.0 0.0078125 1.0 0.0078125 0.9921875 0.0 0.9921875 0.0 1.0 0.0078125 1.0 0.0078125 0.984375 0.0 0.984375 0.0 1.0 0.0078125 1.0 0.0078125 0.9921875 0.0 0.9921875 0.0 1.0 0.0078125 1.0 0.0078125 0.984375 0.0 0.984375 0.0 1.0 0.0078125 1.0 0.0078125 0.9921875 0.0 0.9921875 0.0 1.0 0.0078125 1.0 0.0078125 0.9921875 0.0 0.9921875 0.0 1.0 0.0078125 1.0 0.0078125 0.984375 0.0 0.984375 0.0 1.0 0.0078125 1.0 0.0078125 0.9921875 0.0 0.9921875 0.0 1.0 0.0078125 1.0 0.0078125 0.9921875 0.0 0.9921875 0.0 1.0 0.0078125 1.0 0.0078125 0.984375 0.0 0.984375 0.0 1.0 0.0078125 1.0 0.0078125 0.9921875 0.0 0.9921875 0.0 1.0 0.0078125 1.0 0.0078125 0.984375 0.0 0.984375 0.0 1.0 0.0078125 1.0 0.0078125 0.9921875 0.0 0.9921875 0.0 1.0 0.0078125 1.0 0.0078125 0.984375 0.0 0.984375 0.0 1.0 0.0078125 1.0 0.0078125 0.984375 0.0 0.984375 0.0 1.0 0.0078125 1.0 0.0078125 0.9921875 0.0 0.9921875 0.0 1.0 0.0078125 1.0 0.0078125 0.9921875 0.0 0.9921875 0.0 1.0 0.0078125 1.0 0.0078125 0.984375 0.0 0.984375 0.0 1.0 0.0078125 1.0 0.0078125 0.984375 0.0 0.984375 0.0 1.0 0.0078125 1.0 0.0078125 0.9921875 0.0 0.9921875 0.0 1.0 0.0078125 1.0 0.0078125 0.9921875 0.0 0.9921875 0.0 1.0 0.0078125 1.0 0.0078125 0.984375 0.0 0.984375 0.0 1.0 0.0078125 1.0 0.0078125 0.984375 0.0 0.984375 0.0 1.0 0.0078125 1.0 0.0078125 0.9921875 0.0 0.9921875 0.0 1.0 0.0078125 1.0 0.0078125 0.9921875 0.0 0.9921875 0.0 1.0 0.0078125 1.0 0.0078125 0.9921875 0.0 0.9921875 0.0 1.0 0.0078125 1.0 0.0078125 0.9921875 0.0 0.9921875 0.0 0.984375 0.0078125 0.984375 0.0078125 1.0 0.0 1.0 0.0 0.984375 0.0078125 0.984375 0.0078125 1.0 0.0 1.0 0.0 0.9921875 0.0078125 0.9921875 0.0078125 1.0 0.0 1.0 0.0 0.9921875 0.0078125 0.9921875 0.0078125 1.0 0.0 1.0 0.0 0.984375 0.0078125 0.984375 0.0078125 1.0 0.0 1.0 0.0 0.984375 0.0078125 0.984375 0.0078125 1.0 0.0 1.0 0.0 0.9921875 0.0078125 0.9921875 0.0078125 1.0 0.0 1.0 0.0 0.9921875 0.0078125 0.9921875 0.0078125 1.0 0.0 1.0 0.0 0.984375 0.0078125 0.984375 0.0078125 1.0 0.0 1.0 0.0 0.984375 0.0078125 0.984375 0.0078125 1.0 0.0 1.0 0.0 0.9921875 0.0078125 0.9921875 0.0078125 1.0 0.0 1.0 0.0 0.9921875 0.0078125 0.9921875 0.0078125 1.0 0.0 1.0 0.0 0.9921875 0.0078125 0.9921875 0.0078125 1.0 0.0 1.0 0.0 0.9921875 0.0078125 0.9921875 0.0078125 1.0 0.0 1.0 0.0 0.9921875 0.0078125 0.9921875 0.0078125 1.0 0.0 1.0 0.0 0.9921875 0.0078125 0.9921875 0.0078125 1.0 0.0 1.0 0.0 0.9921875 0.0078125 0.9921875 0.0078125 1.0 0.0 1.0 0.0 0.9921875 0.0078125 0.9921875 0.0078125 1.0 0.0 1.0 0.0 0.9921875 0.0078125 0.9921875 0.0078125 1.0 0.0 1.0 0.0 0.9921875 0.0078125 0.9921875 0.0078125 1.0 0.0 1.0 0.0 0.9921875 0.0078125 0.9921875 0.0078125 1.0 0.0 1.0 0.0 0.9921875 0.0078125 0.9921875 0.0078125 1.0 0.0 1.0 0.0 0.9921875 0.0078125 0.9921875 0.0078125 1.0 0.0 1.0 0.0 0.9921875 0.0078125 0.9921875 0.0078125 1.0 0.0 1.0 0.0 0.9921875 0.0078125 0.9921875 0.0078125 1.0 0.0 1.0 0.0 0.9921875 0.0078125 0.9921875 0.0078125 1.0 0.0 1.0 0.0 0.9921875 0.0078125 0.9921875 0.0078125 1.0 0.0 1.0 0.0 0.9921875 0.0078125 0.9921875 0.0078125 1.0 0.0 1.0 0.0 1.0 0.0078125 1.0 0.0078125 0.9921875 0.0 0.9921875 0.0 1.0 0.0078125 1.0 0.0078125 0.9921875 0.0 0.9921875 0.0 1.0 0.0078125 1.0 0.0078125 0.9921875 0.0 0.9921875 0.0 1.0 0.0078125 1.0 0.0078125 0.9921875 0.0 0.9921875 0.0 1.0 0.0078125 1.0 0.0078125 0.9921875 0.0 0.9921875 0.0 1.0 0.0078125 1.0 0.0078125 0.9921875 0.0 0.9921875 0.0 1.0 0.0078125 1.0 0.0078125 0.9921875 0.0 0.9921875 0.0 1.0 0.0078125 1.0 0.0078125 0.9921875 0.0 0.9921875 0.0 1.0 0.0078125 1.0 0.0078125 0.9921875 0.0 0.9921875 0.0 1.0 0.0078125 1.0 0.0078125 0.9921875 0.0 0.9921875 0.0 1.0 0.0078125 1.0 0.0078125 0.9921875 0.0 0.9921875 0.0 1.0 0.0078125 1.0 0.0078125 0.9921875 0.0 0.9921875 0.0 1.0 0.0078125 1.0 0.0078125 0.9921875 0.0 0.9921875 0.0 1.0 0.0078125 1.0 0.0078125 0.9921875 0.0 0.9921875 </float_array>
          <technique_common>
            <accessor count="336" source="#Content-UV-array" stride="2">
              <param name="S" type="float"/>
              <param name="T" type="float"/>
            </accessor>
          </technique_common>
        </source>
        <source id="Content-Normal">
          <float_array count="18" id="Content-Normal-array">-1.0 0.0 0.0 1.0 0.0 0.0 0.0 -1.0 0.0 0.0 1.0 0.0 0.0 0.0 -1.0 0.0 0.0 1.0</float_array>
          <technique_common>
            <accessor count="6" source="#Content-Normal-array" stride="3">
              <param name="X" type="float"/>
              <param name="Y" type="float"/>
              <param name="Z" type="float"/>
            </accessor>
          </technique_common>
        </source>
        <vertices id="Content-Vertices">
          <input semantic="POSITION" source="#Content-Pos"/>
        </vertices>
        <polylist count="84" material="Content-Material">
          <input offset="0" semantic="VERTEX" source="#Content-Vertices"/>
          <input offset="1" semantic="TEXCOORD" set="0" source="#Content-UV"/>
          <input offset="2" semantic="NORMAL" source="#Content-Normal"/>
          <vcount>4 4 4 4 4 4 4 4 4 4 4 4 4 4 4 4 4 4 4 4 4 4 4 4 4 4 4 4 4 4 4 4 4 4 4 4 4 4 4 4 4 4 4 4 4 4 4 4 4 4 4 4 4 4 4 4 4 4 4 4 4 4 4 4 4 4 4 4 4 4 4 4 4 4 4 4 4 4 4 4 4 4 4 4 </vcount>
          <p>0 0 0 1 1 0 2 2 0 3 3 0 4 4 0 5 5 0 6 6 0 7 7 0 8 8 0 9 9 0 10 10 0 11 11 0 12 12 0 13 13 0 14 14 0 15 15 0 16 16 0 17 17 0 18 18 0 19 19 0 20 20 0 21 21 0 22 22 0 23 23 0 24 24 0 25 25 0 26 26 0 27 27 0 28 28 0 29 29 0 30 30 0 31 31 0 32 32 0 33 33 0 34 34 0 35 35 0 36 36 0 37 37 0 38 38 0 39 39 0 40 40 0 41 41 0 42 42 0 43 43 0 44 44 0 45 45 0 46 46 0 47 47 0 48 48 0 49 49 0 50 50 0 51 51 0 52 52 0 53 53 0 54 54 0 55 55 0 56 56 1 57 57 1 58 58 1 59 59 1 60 60 1 61 61 1 62 62 1 63 63 1 64 64 1 65 65 1 66 66 1 67 67 1 68 68 1 69 69 1 70 70 1 71 71 1 72 72 1 73 73 1 74 74 1 75 75 1 76 76 1 77 77 1 78 78 1 79 79 1 80 80 1 81 81 1 82 82 1 83 83 1 84 84 1 85 85 1 86 86 1 87 87 1 88 88 1 89 89 1 90 90 1 91 91 1 92 92 1 93 93 1 94 94 1 95 95 1 96 96 1 97 97 1 98 98 1 99 99 1 100 100 1 101 101 1 102 102 1 103 103 1 104 104 1 105 105 1 106 106 1 107 107 1 108 108 1 109 109 1 110 110 1 111 111 1 112 112 2 113 113 2 114 114 2 115 115 2 116 116 2 117 117 2 118 118 2 119 119 2 120 120 2 121 121 2 122 122 2 123 123 2 124 124 2 125 125 2 126 126 2 127 127 2 128 128 2 129 129 2 130 130 2 131 131 2 132 132 2 133 133 2 134 134 2 135 135 2 136 136 2 137 137 2 138 138 2 139 139 2 140 140 2 141 141 2 142 142 2 143 143 2 144 144 2 145 145 2 146 146 2 147 147 2 148 148 2 149 149 2 150 150 2 151 151 2 152 152 2 153 153 2 154 154 2 155 155 2 156 156 2 157 157 2 158 158 2 159 159 2 160 160 2 161 161 2 162 162 2 163 163 2 164 164 2 165 165 2 166 166 2 167 167 2 168 168 3 169 169 3 170 170 3 171 171 3 172 172 3 173 173 3 174 174 3 175 175 3 176 176 3 177 177 3 178 178 3 179 179 3 180 180 3 181 181 3 182 182 3 183 183 3 184 184 3 185 185 3 186 186 3 187 187 3 188 188 3 189 189 3 190 190 3 191 191 3 192 192 3 193 193 3 194 194 3 195 195 3 196 196 3 197 197 3 198 198 3 199 199 3 200 200 3 201 201 3 202 202 3 203 203 3 204 204 3 205 205 3 206 206 3 207 207 3 208 208 3 209 209 3 210 210 3 211 211 3 212 212 3 213 213 3 214 214 3 215 215 3 216 216 3 217 217 3 218 218 3 219 219 3 220 220 3 221 221 3 222 222 3 223 223 3 224 224 4 225 225 4 226 226 4 227 227 4 228 228 4 229 229 4 230 230 4 231 231 4 232 232 4 233 233 4 234 234 4 235 235 4 236 236 4 237 237 4 238 238 4 239 239 4 240 240 4 241 241 4 242 242 4 243 243 4 244 244 4 245 245 4 246 246 4 247 247 4 248 248 4 249 249 4 250 250 4 251 251 4 252 252 4 253 253 4 254 254 4 255 255 4 256 256 4 257 257 4 258 258 4 259 259 4 260 260 4 261 261 4 262 262 4 263 263 4 264 264 4 265 265 4 266 266 4 267 267 4 268 268 4 269 269 4 270 270 4 271 271 4 272 272 4 273 273 4 274 274 4 275 275 4 276 276 4 277 277 4 278 278 4 279 279 4 280 280 5 281 281 5 282 282 5 283 283 5 284 284 5 285 285 5 286 286 5 287 287 5 288 288 5 289 289 5 290 290 5 291 291 5 292 292 5 293 293 5 294 294 5 295 295 5 296 296 5 297 297 5 298 298 5 299 299 5 300 300 5 301 301 5 302 302 5 303 303 5 304 304 5 305 305 5 306 306 5 307 307 5 308 308 5 309 309 5 310 310 5 311 311 5 312 312 5 313 313 5 314 314 5 315 315 5 316 316 5 317 317 5 318 318 5 319 319 5 320 320 5 321 321 5 322 322 5 323 323 5 324 324 5 325 325 5 326 326 5 327 327 5 328 328 5 329 329 5 330 330 5 331 331 5 332 332 5 333 333 5 334 334 5 335 335 5 </p>
        </polylist>
      </mesh>
    </geometry>
  </library_geometries>
  <library_animations/>
  <library_visual_scenes>
    <visual_scene id="DefaultScene">
      <node id="Content" name="Content">
        <translate>0 0 0</translate>
        <rotate>0 0 1 0</rotate>
        <rotate>0 1 0 0</rotate>
        <rotate>1 0 0 0</rotate>
        <scale>1 1 1</scale>
        <instance_geometry url="#Content-Geom">
          <bind_material>
            <technique_common>
              <instance_material symbol="Content-Material" target="#Content-Material">
                <bind_vertex_input input_semantic="TEXCOORD" input_set="0" semantic="Content-tex-bind"/>
              </instance_material>
            </technique_common>
          </bind_material>
        </instance_geometry>
      </node>
    </visual_scene>
  </library_visual_scenes>
  <scene>
    <instance_visual_scene url="#DefaultScene"/>
  </scene>
</COLLADA>
